\relax 
\providecommand{\transparent@use}[1]{}
\providecommand\hyper@newdestlabel[2]{}
\catcode `"\active 
\catcode `-\active 
\providecommand\HyperFirstAtBeginDocument{\AtBeginDocument}
\HyperFirstAtBeginDocument{\ifx\hyper@anchor\@undefined
\global\let\oldcontentsline\contentsline
\gdef\contentsline#1#2#3#4{\oldcontentsline{#1}{#2}{#3}}
\global\let\oldnewlabel\newlabel
\gdef\newlabel#1#2{\newlabelxx{#1}#2}
\gdef\newlabelxx#1#2#3#4#5#6{\oldnewlabel{#1}{{#2}{#3}}}
\AtEndDocument{\ifx\hyper@anchor\@undefined
\let\contentsline\oldcontentsline
\let\newlabel\oldnewlabel
\fi}
\fi}
\global\let\hyper@last\relax 
\gdef\HyperFirstAtBeginDocument#1{#1}
\providecommand\HyField@AuxAddToFields[1]{}
\providecommand\HyField@AuxAddToCoFields[2]{}
\select@language{czech}
\@writefile{toc}{\select@language{czech}}
\@writefile{lof}{\select@language{czech}}
\@writefile{lot}{\select@language{czech}}
\@writefile{toc}{\contentsline {section}{\numberline {1}Popis aplikace}{1}{section.1}}
\@writefile{toc}{\contentsline {subsection}{\numberline {1.1}Funkce aplikace}{1}{subsection.1.1}}
\@writefile{toc}{\contentsline {subsection}{\numberline {1.2}T\IeC {\v r}\IeC {\'\i }dy u\IeC {\v z}ivatel\IeC {\r u}}{1}{subsection.1.2}}
\@writefile{toc}{\contentsline {section}{\numberline {2}Instalace a spu\IeC {\v s}t\IeC {\v e}n\IeC {\'\i }}{2}{section.2}}
\@writefile{toc}{\contentsline {section}{\numberline {3}Popis u\IeC {\v z}ivatelsk\IeC {\'e}ho prost\IeC {\v r}ed\IeC {\'\i }}{3}{section.3}}
\@writefile{toc}{\contentsline {subsection}{\numberline {3.1}P\IeC {\v r}ihl\IeC {\'a}\IeC {\v s}en\IeC {\'\i } aplikace k bezpe\IeC {\v c}nostn\IeC {\'\i } br\IeC {\'a}n\IeC {\v e}}{3}{subsection.3.1}}
\@writefile{toc}{\contentsline {subsection}{\numberline {3.2}P\IeC {\v r}ihl\IeC {\'a}\IeC {\v s}en\IeC {\'\i } do aplikace}{3}{subsection.3.2}}
\@writefile{lof}{\contentsline {figure}{\numberline {1}{\ignorespaces P\IeC {\v r}ihla\IeC {\v s}ovac\IeC {\'\i } okno aplikace\relax }}{3}{figure.caption.1}}
\providecommand*\caption@xref[2]{\@setref\relax\@undefined{#1}}
\newlabel{fig:login}{{1}{3}{Přihlašovací okno aplikace\relax }{figure.caption.1}{}}
\@writefile{toc}{\contentsline {subsection}{\numberline {3.3}Spou\IeC {\v s}t\IeC {\v e}n\IeC {\'\i } aplikace po p\IeC {\v r}ihl\IeC {\'a}\IeC {\v s}en\IeC {\'\i }}{4}{subsection.3.3}}
\@writefile{lof}{\contentsline {figure}{\numberline {2}{\ignorespaces Na\IeC {\v c}ten\IeC {\'\i } zapnut\IeC {\'y}ch pravidel\relax }}{4}{figure.caption.2}}
\newlabel{fig:start}{{2}{4}{Načtení zapnutých pravidel\relax }{figure.caption.2}{}}
\@writefile{toc}{\contentsline {subsection}{\numberline {3.4}V\IeC {\'y}b\IeC {\v e}r a ulo\IeC {\v z}en\IeC {\'\i } nov\IeC {\'e}ho nastaven\IeC {\'\i }}{5}{subsection.3.4}}
\@writefile{lof}{\contentsline {figure}{\numberline {3}{\ignorespaces Zobrazen\IeC {\'\i }, co v\IeC {\v s}e bude zak\IeC {\'a}zano (po najet\IeC {\'\i } my\IeC {\v s}\IeC {\'\i } na modr\IeC {\'y} otazn\IeC {\'\i }k)\relax }}{6}{figure.caption.3}}
\newlabel{fig:tooltip}{{3}{6}{Zobrazení, co vše bude zakázano (po najetí myší na modrý otazník)\relax }{figure.caption.3}{}}
\@writefile{lof}{\contentsline {figure}{\numberline {4}{\ignorespaces Ulo\IeC {\v z}en\IeC {\'\i } pravidla\relax }}{6}{figure.caption.4}}
\newlabel{fig:save}{{4}{6}{Uložení pravidla\relax }{figure.caption.4}{}}
