\relax 
\providecommand{\transparent@use}[1]{}
\providecommand\hyper@newdestlabel[2]{}
\catcode `"\active 
\catcode `-\active 
\providecommand\HyperFirstAtBeginDocument{\AtBeginDocument}
\HyperFirstAtBeginDocument{\ifx\hyper@anchor\@undefined
\global\let\oldcontentsline\contentsline
\gdef\contentsline#1#2#3#4{\oldcontentsline{#1}{#2}{#3}}
\global\let\oldnewlabel\newlabel
\gdef\newlabel#1#2{\newlabelxx{#1}#2}
\gdef\newlabelxx#1#2#3#4#5#6{\oldnewlabel{#1}{{#2}{#3}}}
\AtEndDocument{\ifx\hyper@anchor\@undefined
\let\contentsline\oldcontentsline
\let\newlabel\oldnewlabel
\fi}
\fi}
\global\let\hyper@last\relax 
\gdef\HyperFirstAtBeginDocument#1{#1}
\providecommand\HyField@AuxAddToFields[1]{}
\providecommand\HyField@AuxAddToCoFields[2]{}
\select@language{czech}
\@writefile{toc}{\select@language{czech}}
\@writefile{lof}{\select@language{czech}}
\@writefile{lot}{\select@language{czech}}
\@writefile{toc}{\contentsline {section}{\numberline {1}Popis aplikace}{1}{section.1}}
\@writefile{toc}{\contentsline {subsection}{\numberline {1.1}Funkce aplikace}{1}{subsection.1.1}}
\@writefile{toc}{\contentsline {subsection}{\numberline {1.2}T\IeC {\v r}\IeC {\'\i }dy u\IeC {\v z}ivatel\IeC {\r u}}{1}{subsection.1.2}}
\@writefile{toc}{\contentsline {section}{\numberline {2}Instalace a spu\IeC {\v s}t\IeC {\v e}n\IeC {\'\i }}{2}{section.2}}
\@writefile{toc}{\contentsline {section}{\numberline {3}Ovl\IeC {\'a}d\IeC {\'a}n\IeC {\'\i } aplikace}{2}{section.3}}
\@writefile{toc}{\contentsline {subsection}{\numberline {3.1}P\IeC {\v r}ihl\IeC {\'a}\IeC {\v s}en\IeC {\'\i } do aplikace}{2}{subsection.3.1}}
\@writefile{toc}{\contentsline {subsection}{\numberline {3.2}Hlavn\IeC {\'\i } okno aplikace}{2}{subsection.3.2}}
\@writefile{lof}{\contentsline {figure}{\numberline {1}{\ignorespaces P\IeC {\v r}ihla\IeC {\v s}ovac\IeC {\'\i } okno aplikace\relax }}{3}{figure.caption.1}}
\providecommand*\caption@xref[2]{\@setref\relax\@undefined{#1}}
\newlabel{fig:login}{{1}{3}{Přihlašovací okno aplikace\relax }{figure.caption.1}{}}
\@writefile{lof}{\contentsline {figure}{\numberline {2}{\ignorespaces Hlavn\IeC {\'\i } okno aplikace\relax }}{3}{figure.caption.2}}
\newlabel{fig:start}{{2}{3}{Hlavní okno aplikace\relax }{figure.caption.2}{}}
\@writefile{toc}{\contentsline {subsection}{\numberline {3.3}Z\IeC {\'\i }sk\IeC {\'a}n\IeC {\'\i } stavu bezpe\IeC {\v c}nostn\IeC {\'\i } br\IeC {\'a}ny}{3}{subsection.3.3}}
\@writefile{lot}{\contentsline {table}{\numberline {1}{\ignorespaces V\IeC {\'y}znam tla\IeC {\v c}\IeC {\'\i }tek\relax }}{4}{table.caption.3}}
\newlabel{tab:mainAPp}{{1}{4}{Význam tlačítek\relax }{table.caption.3}{}}
\@writefile{toc}{\contentsline {subsection}{\numberline {3.4}Spustit opakovan\IeC {\v e}}{4}{subsection.3.4}}
\@writefile{lof}{\contentsline {figure}{\numberline {3}{\ignorespaces V\IeC {\'y}pis stavu bezpe\IeC {\v c}nostn\IeC {\'\i } br\IeC {\'a}ny\relax }}{5}{figure.caption.4}}
\newlabel{fig:stav}{{3}{5}{Výpis stavu bezpečnostní brány\relax }{figure.caption.4}{}}
\@writefile{toc}{\contentsline {subsection}{\numberline {3.5}Nastaven\IeC {\'\i } ov\IeC {\v e}\IeC {\v r}ovan\IeC {\'y}ch IP adres}{5}{subsection.3.5}}
\@writefile{toc}{\contentsline {subsection}{\numberline {3.6}Vytvo\IeC {\v r}en\IeC {\'\i } konfigura\IeC {\v c}n\IeC {\'\i }ho souboru connection.txt}{5}{subsection.3.6}}
\@writefile{lof}{\contentsline {figure}{\numberline {4}{\ignorespaces Okno s mo\IeC {\v z}nost\IeC {\'\i } ulo\IeC {\v z}en\IeC {\'\i } ov\IeC {\v e}\IeC {\v r}ovan\IeC {\'y}ch IP adres po restart\relax }}{6}{figure.caption.5}}
\newlabel{fig:ip}{{4}{6}{Okno s možností uložení ověřovaných IP adres po restart\relax }{figure.caption.5}{}}
\@writefile{lof}{\contentsline {figure}{\numberline {5}{\ignorespaces Otev\IeC {\v r}en\IeC {\'\i } nov\IeC {\'e}ho konfigura\IeC {\v c}n\IeC {\'\i }ho souboru\relax }}{7}{figure.caption.6}}
\newlabel{fig:frst}{{5}{7}{Otevření nového konfiguračního souboru\relax }{figure.caption.6}{}}
\@writefile{lof}{\contentsline {figure}{\numberline {6}{\ignorespaces Edita\IeC {\v c}n\IeC {\'\i } okno\relax }}{7}{figure.caption.7}}
\newlabel{fig:scnd}{{6}{7}{Editační okno\relax }{figure.caption.7}{}}
\@writefile{lof}{\contentsline {figure}{\numberline {7}{\ignorespaces Nov\IeC {\v e} vytvo\IeC {\v r}en\IeC {\'e} soubory\relax }}{8}{figure.caption.8}}
\newlabel{fig:thrd}{{7}{8}{Nově vytvořené soubory\relax }{figure.caption.8}{}}
\@writefile{toc}{\contentsline {subsection}{\numberline {3.7}Logov\IeC {\'a}n\IeC {\'\i }}{8}{subsection.3.7}}
\@writefile{toc}{\contentsline {section}{\numberline {4}Popis konfigura\IeC {\v c}n\IeC {\'\i }ch soubor\IeC {\r u}}{9}{section.4}}
\@writefile{toc}{\contentsline {subsection}{\numberline {4.1}Obsah souboru \textit  {connection.txt}}{9}{subsection.4.1}}
\@writefile{toc}{\contentsline {subsection}{\numberline {4.2}Obsah souboru \textit  {ui.txt}}{10}{subsection.4.2}}
\@writefile{toc}{\contentsline {section}{\numberline {5}Nastaven\IeC {\'\i } pravidel bezpe\IeC {\v c}nostn\IeC {\'\i } br\IeC {\'a}ny}{11}{section.5}}
\@writefile{lof}{\contentsline {figure}{\numberline {8}{\ignorespaces Screenshot webv\IeC {\'e}ho prost\IeC {\v r}ed\IeC {\'\i } bezpe\IeC {\v c}nostn\IeC {\'\i } br\IeC {\'a}ny.\relax }}{11}{figure.caption.9}}
\newlabel{fig:usgUI}{{8}{11}{Screenshot webvého prostředí bezpečnostní brány.\relax }{figure.caption.9}{}}
\@writefile{toc}{\contentsline {section}{\numberline {6}Chybov\IeC {\'e} hl\IeC {\'a}\IeC {\v s}ky}{12}{section.6}}
\@writefile{lof}{\contentsline {figure}{\numberline {9}{\ignorespaces Stav po stisknut\IeC {\'\i } tla\IeC {\v c}\IeC {\'\i }tka \uv  {Ov\IeC {\v e}\IeC {\v r}it dostupnost a stav}, \IeC {\v R}e\IeC {\v s}en\IeC {\'\i }: ov\IeC {\v e}\IeC {\v r}it konektivitu bezpe\IeC {\v c}nostn\IeC {\'\i } br\IeC {\'a}ny\relax }}{12}{figure.caption.10}}
\newlabel{fig:ipN}{{9}{12}{Stav po stisknutí tlačítka \uv {Ověřit dostupnost a stav}, Řešení: ověřit konektivitu bezpečnostní brány\relax }{figure.caption.10}{}}
\@writefile{lof}{\contentsline {figure}{\numberline {10}{\ignorespaces Stav po stisknut\IeC {\'\i } tla\IeC {\v c}\IeC {\'\i }tka \uv  {Ov\IeC {\v e}\IeC {\v r}it dostupnost a stav}, \IeC {\v R}e\IeC {\v s}en\IeC {\'\i }: ov\IeC {\v e}\IeC {\v r}it p\IeC {\v r}ihla\IeC {\v s}ovac\IeC {\'\i } \IeC {\'u}daje v konfigura\IeC {\v c}n\IeC {\'\i }ch souborech\relax }}{12}{figure.caption.11}}
\newlabel{fig:signN}{{10}{12}{Stav po stisknutí tlačítka \uv {Ověřit dostupnost a stav}, Řešení: ověřit přihlašovací údaje v konfiguračních souborech\relax }{figure.caption.11}{}}
\@writefile{lof}{\contentsline {figure}{\numberline {11}{\ignorespaces Stav po zapnut\IeC {\'\i } aplikace ZyCONENT \uv  {Ov\IeC {\v e}\IeC {\v r}it dostupnost a~stav}, \IeC {\v R}e\IeC {\v s}en\IeC {\'\i }: ov\IeC {\v e}\IeC {\v r}it konektivitu bezpe\IeC {\v c}nostn\IeC {\'\i } br\IeC {\'a}ny\relax }}{13}{figure.caption.12}}
\newlabel{fig:ipNCONT}{{11}{13}{Stav po zapnutí aplikace ZyCONENT \uv {Ověřit dostupnost a~stav}, Řešení: ověřit konektivitu bezpečnostní brány\relax }{figure.caption.12}{}}
\@writefile{lof}{\contentsline {figure}{\numberline {12}{\ignorespaces Stav po zapnut\IeC {\'\i } aplikace ZyCONENT \uv  {Ov\IeC {\v e}\IeC {\v r}it dostupnost a~stav}, \IeC {\v R}e\IeC {\v s}en\IeC {\'\i }: ov\IeC {\v e}\IeC {\v r}it p\IeC {\v r}ihla\IeC {\v s}ovac\IeC {\'\i } \IeC {\'u}daje v konfigura\IeC {\v c}n\IeC {\'\i }ch souborech\relax }}{14}{figure.caption.13}}
\newlabel{fig:signNCONT}{{12}{14}{Stav po zapnutí aplikace ZyCONENT \uv {Ověřit dostupnost a~stav}, Řešení: ověřit přihlašovací údaje v konfiguračních souborech\relax }{figure.caption.13}{}}
\@writefile{lof}{\contentsline {figure}{\numberline {13}{\ignorespaces Stav po zapnut\IeC {\'\i } aplikace ZyCONENT, \IeC {\v R}e\IeC {\v s}en\IeC {\'\i }: konfigura\IeC {\v c}n\IeC {\'\i } soubory byly bu\IeC {\v d} smaz\IeC {\'a}ny, nebo byly upraveny ani\IeC {\v z} by byl zm\IeC {\v e}n\IeC {\v e}n soubor s~otiskem - ov\IeC {\v e}\IeC {\v r}it a spr\IeC {\'a}vn\IeC {\v e} nakonfigurovat soubory\relax }}{15}{figure.caption.14}}
\newlabel{fig:fileNONT}{{13}{15}{Stav po zapnutí aplikace ZyCONENT, Řešení: konfigurační soubory byly buď smazány, nebo byly upraveny aniž by byl změněn soubor s~otiskem - ověřit a správně nakonfigurovat soubory\relax }{figure.caption.14}{}}
\@writefile{lof}{\contentsline {figure}{\numberline {14}{\ignorespaces Stav po zapnut\IeC {\'\i } aplikace ZyREBOOT, \IeC {\v R}e\IeC {\v s}en\IeC {\'\i }: ov\IeC {\v e}\IeC {\v r}it konektivitu bezpe\IeC {\v c}nostn\IeC {\'\i } br\IeC {\'a}ny\relax }}{16}{figure.caption.15}}
\newlabel{fig:signNREB}{{14}{16}{Stav po zapnutí aplikace ZyREBOOT, Řešení: ověřit konektivitu bezpečnostní brány\relax }{figure.caption.15}{}}
