\relax 
\providecommand{\transparent@use}[1]{}
\catcode `"\active 
\catcode `-\active 
\select@language{czech}
\@writefile{toc}{\select@language{czech}}
\@writefile{lof}{\select@language{czech}}
\@writefile{lot}{\select@language{czech}}
\@writefile{toc}{\contentsline {section}{\numberline {1}Popis aplikace}{1}}
\@writefile{toc}{\contentsline {subsection}{\numberline {1.1}Funkce aplikace}{1}}
\@writefile{toc}{\contentsline {subsection}{\numberline {1.2}T\IeC {\v r}\IeC {\'\i }dy u\IeC {\v z}ivatel\IeC {\r u}}{1}}
\@writefile{toc}{\contentsline {section}{\numberline {2}Instalace a spu\IeC {\v s}t\IeC {\v e}n\IeC {\'\i }}{2}}
\@writefile{toc}{\contentsline {section}{\numberline {3}Popis u\IeC {\v z}ivatelsk\IeC {\'e}ho prost\IeC {\v r}ed\IeC {\'\i }}{3}}
\@writefile{toc}{\contentsline {subsection}{\numberline {3.1}P\IeC {\v r}ihl\IeC {\'a}\IeC {\v s}en\IeC {\'\i } aplikace k bezpe\IeC {\v c}nostn\IeC {\'\i } br\IeC {\'a}n\IeC {\v e}}{3}}
\@writefile{toc}{\contentsline {subsection}{\numberline {3.2}P\IeC {\v r}ihl\IeC {\'a}\IeC {\v s}en\IeC {\'\i } do aplikace}{3}}
\@writefile{lof}{\contentsline {figure}{\numberline {1}{\ignorespaces P\IeC {\v r}ihla\IeC {\v s}ovac\IeC {\'\i } okno aplikace\relax }}{3}}
\providecommand*\caption@xref[2]{\@setref\relax\@undefined{#1}}
\newlabel{fig:login}{{1}{3}}
\@writefile{toc}{\contentsline {subsection}{\numberline {3.3}Spou\IeC {\v s}t\IeC {\v e}n\IeC {\'\i } aplikace po p\IeC {\v r}ihl\IeC {\'a}\IeC {\v s}en\IeC {\'\i }}{4}}
\@writefile{lof}{\contentsline {figure}{\numberline {2}{\ignorespaces Na\IeC {\v c}ten\IeC {\'\i } zapnut\IeC {\'y}ch pravidel\relax }}{4}}
\newlabel{fig:start}{{2}{4}}
\@writefile{toc}{\contentsline {subsection}{\numberline {3.4}V\IeC {\'y}b\IeC {\v e}r a ulo\IeC {\v z}en\IeC {\'\i } nov\IeC {\'e}ho nastaven\IeC {\'\i }}{5}}
\@writefile{lof}{\contentsline {figure}{\numberline {3}{\ignorespaces Zobrazen\IeC {\'\i }, co v\IeC {\v s}e bude zak\IeC {\'a}zano (po najet\IeC {\'\i } my\IeC {\v s}\IeC {\'\i } na modr\IeC {\'y} otazn\IeC {\'\i }k)\relax }}{6}}
\newlabel{fig:tooltip}{{3}{6}}
\@writefile{lof}{\contentsline {figure}{\numberline {4}{\ignorespaces Ulo\IeC {\v z}en\IeC {\'\i } pravidla\relax }}{6}}
\newlabel{fig:save}{{4}{6}}
