\select@language {czech}
\contentsline {section}{\numberline {1}Popis aplikace}{1}{section.1}
\contentsline {subsection}{\numberline {1.1}Funkce aplikace}{1}{subsection.1.1}
\contentsline {subsection}{\numberline {1.2}T\IeC {\v r}\IeC {\'\i }dy u\IeC {\v z}ivatel\IeC {\r u}}{1}{subsection.1.2}
\contentsline {section}{\numberline {2}Instalace a spu\IeC {\v s}t\IeC {\v e}n\IeC {\'\i }}{2}{section.2}
\contentsline {section}{\numberline {3}Popis u\IeC {\v z}ivatelsk\IeC {\'e}ho prost\IeC {\v r}ed\IeC {\'\i }}{3}{section.3}
\contentsline {subsection}{\numberline {3.1}P\IeC {\v r}ihl\IeC {\'a}\IeC {\v s}en\IeC {\'\i } aplikace k bezpe\IeC {\v c}nostn\IeC {\'\i } br\IeC {\'a}n\IeC {\v e}}{3}{subsection.3.1}
\contentsline {subsection}{\numberline {3.2}P\IeC {\v r}ihl\IeC {\'a}\IeC {\v s}en\IeC {\'\i } do aplikace}{3}{subsection.3.2}
\contentsline {subsection}{\numberline {3.3}Spou\IeC {\v s}t\IeC {\v e}n\IeC {\'\i } aplikace po p\IeC {\v r}ihl\IeC {\'a}\IeC {\v s}en\IeC {\'\i }}{4}{subsection.3.3}
\contentsline {subsection}{\numberline {3.4}V\IeC {\'y}b\IeC {\v e}r a ulo\IeC {\v z}en\IeC {\'\i } nov\IeC {\'e}ho nastaven\IeC {\'\i }}{5}{subsection.3.4}
