\relax 
\providecommand{\transparent@use}[1]{}
\providecommand\hyper@newdestlabel[2]{}
\catcode `"\active 
\catcode `-\active 
\providecommand\HyperFirstAtBeginDocument{\AtBeginDocument}
\HyperFirstAtBeginDocument{\ifx\hyper@anchor\@undefined
\global\let\oldcontentsline\contentsline
\gdef\contentsline#1#2#3#4{\oldcontentsline{#1}{#2}{#3}}
\global\let\oldnewlabel\newlabel
\gdef\newlabel#1#2{\newlabelxx{#1}#2}
\gdef\newlabelxx#1#2#3#4#5#6{\oldnewlabel{#1}{{#2}{#3}}}
\AtEndDocument{\ifx\hyper@anchor\@undefined
\let\contentsline\oldcontentsline
\let\newlabel\oldnewlabel
\fi}
\fi}
\global\let\hyper@last\relax 
\gdef\HyperFirstAtBeginDocument#1{#1}
\providecommand\HyField@AuxAddToFields[1]{}
\providecommand\HyField@AuxAddToCoFields[2]{}
\select@language{czech}
\@writefile{toc}{\select@language{czech}}
\@writefile{lof}{\select@language{czech}}
\@writefile{lot}{\select@language{czech}}
\@writefile{toc}{\contentsline {section}{\numberline {1}Popis aplikace ZyREBOOT}{1}{section.1}}
\@writefile{toc}{\contentsline {subsection}{\numberline {1.1}Funkce aplikace}{1}{subsection.1.1}}
\@writefile{toc}{\contentsline {subsection}{\numberline {1.2}T\IeC {\v r}\IeC {\'\i }dy u\IeC {\v z}ivatel\IeC {\r u}}{1}{subsection.1.2}}
\@writefile{toc}{\contentsline {section}{\numberline {2}Instalace a spu\IeC {\v s}t\IeC {\v e}n\IeC {\'\i }}{2}{section.2}}
\@writefile{toc}{\contentsline {section}{\numberline {3}Popis u\IeC {\v z}ivatelsk\IeC {\'e}ho prost\IeC {\v r}ed\IeC {\'\i }}{2}{section.3}}
\@writefile{toc}{\contentsline {subsection}{\numberline {3.1}P\IeC {\v r}ihl\IeC {\'a}\IeC {\v s}en\IeC {\'\i } aplikace k bezpe\IeC {\v c}nostn\IeC {\'\i } br\IeC {\'a}n\IeC {\v e}}{2}{subsection.3.1}}
\@writefile{toc}{\contentsline {subsection}{\numberline {3.2}Pr\IeC {\r u}b\IeC {\v e}h restartu}{3}{subsection.3.2}}
\@writefile{lof}{\contentsline {figure}{\numberline {1}{\ignorespaces Spu\IeC {\v s}t\IeC {\v e}n\IeC {\'\i } aplikace (informace o IP adrese restartovan\IeC {\'e} bezpe\IeC {\v c}nostn\IeC {\'\i } br\IeC {\'a}ny a o pr\IeC {\r u}b\IeC {\v e}hu p\IeC {\v r}ipojen\IeC {\'\i })\relax }}{3}{figure.caption.1}}
\providecommand*\caption@xref[2]{\@setref\relax\@undefined{#1}}
\newlabel{fig:start}{{1}{3}{Spuštění aplikace (informace o IP adrese restartované bezpečnostní brány a o průběhu připojení)\relax }{figure.caption.1}{}}
\@writefile{toc}{\contentsline {subsection}{\numberline {3.3}Ov\IeC {\v e}\IeC {\v r}en\IeC {\'\i } dostupnosti IP adres}{3}{subsection.3.3}}
\@writefile{lof}{\contentsline {figure}{\numberline {2}{\ignorespaces Informace o dostupnosti ov\IeC {\v e}\IeC {\v r}ovan\IeC {\'y}ch IP adres\relax }}{4}{figure.caption.2}}
\newlabel{fig:ping}{{2}{4}{Informace o dostupnosti ověřovaných IP adres\relax }{figure.caption.2}{}}
\@writefile{toc}{\contentsline {subsection}{\numberline {3.4}Informace o stavu po restartu}{4}{subsection.3.4}}
\@writefile{lof}{\contentsline {figure}{\numberline {3}{\ignorespaces Uk\IeC {\'a}zka automaticky odeslan\IeC {\'e}ho e-mailu, stejn\IeC {\'a} zpr\IeC {\'a}va se ukl\IeC {\'a}d\IeC {\'a} do souboru \textit  {log.txt}\relax }}{4}{figure.caption.3}}
\newlabel{fig:mail}{{3}{4}{Ukázka automaticky odeslaného e-mailu, stejná zpráva se ukládá do souboru \textit {log.txt}\relax }{figure.caption.3}{}}
