\select@language {czech}
\contentsline {section}{\numberline {1}Popis aplikace ZyREBOOT}{1}{section.1}
\contentsline {subsection}{\numberline {1.1}Funkce aplikace}{1}{subsection.1.1}
\contentsline {subsection}{\numberline {1.2}T\IeC {\v r}\IeC {\'\i }dy u\IeC {\v z}ivatel\IeC {\r u}}{1}{subsection.1.2}
\contentsline {section}{\numberline {2}Instalace a spu\IeC {\v s}t\IeC {\v e}n\IeC {\'\i }}{2}{section.2}
\contentsline {section}{\numberline {3}Popis u\IeC {\v z}ivatelsk\IeC {\'e}ho prost\IeC {\v r}ed\IeC {\'\i }}{2}{section.3}
\contentsline {subsection}{\numberline {3.1}P\IeC {\v r}ihl\IeC {\'a}\IeC {\v s}en\IeC {\'\i } aplikace k bezpe\IeC {\v c}nostn\IeC {\'\i } br\IeC {\'a}n\IeC {\v e}}{2}{subsection.3.1}
\contentsline {subsection}{\numberline {3.2}Pr\IeC {\r u}b\IeC {\v e}h restartu}{3}{subsection.3.2}
\contentsline {subsection}{\numberline {3.3}Ov\IeC {\v e}\IeC {\v r}en\IeC {\'\i } dostupnosti IP adres}{3}{subsection.3.3}
\contentsline {subsection}{\numberline {3.4}Informace o stavu po restartu}{4}{subsection.3.4}
