\relax 
\providecommand\hyper@newdestlabel[2]{}
\catcode `"\active 
\catcode `-\active 
\AC@reset@newl@bel
\providecommand\HyperFirstAtBeginDocument{\AtBeginDocument}
\HyperFirstAtBeginDocument{\ifx\hyper@anchor\@undefined
\global\let\oldcontentsline\contentsline
\gdef\contentsline#1#2#3#4{\oldcontentsline{#1}{#2}{#3}}
\global\let\oldnewlabel\newlabel
\gdef\newlabel#1#2{\newlabelxx{#1}#2}
\gdef\newlabelxx#1#2#3#4#5#6{\oldnewlabel{#1}{{#2}{#3}}}
\AtEndDocument{\ifx\hyper@anchor\@undefined
\let\contentsline\oldcontentsline
\let\newlabel\oldnewlabel
\fi}
\fi}
\global\let\hyper@last\relax 
\gdef\HyperFirstAtBeginDocument#1{#1}
\providecommand\HyField@AuxAddToFields[1]{}
\providecommand\HyField@AuxAddToCoFields[2]{}
\select@language{czech}
\@writefile{toc}{\select@language{czech}}
\@writefile{lof}{\select@language{czech}}
\@writefile{lot}{\select@language{czech}}
\@writefile{toc}{\contentsline {chapter}{\numberline {1}\IeC {\'U}vod}{1}{chapter.1}}
\@writefile{lof}{\addvspace {10\p@ }}
\@writefile{lot}{\addvspace {10\p@ }}
\citation{svetsiti_ETHERNET}
\@writefile{toc}{\contentsline {chapter}{\numberline {2}V\IeC {\'y}voj po\IeC {\v c}\IeC {\'\i }ta\IeC {\v c}ov\IeC {\'e} s\IeC {\'\i }t\IeC {\v e} v budov\IeC {\v e} gymn\IeC {\'a}zia}{2}{chapter.2}}
\@writefile{lof}{\addvspace {10\p@ }}
\@writefile{lot}{\addvspace {10\p@ }}
\newlabel{chpt_yearbyyear}{{2}{2}{Vývoj počítačové sítě v budově gymnázia}{chapter.2}{}}
\@writefile{toc}{\contentsline {section}{\numberline {2.1}F\IeC {\'a}ze I. - budov\IeC {\'a}n\IeC {\'\i } dr\IeC {\'a}tov\IeC {\'e} s\IeC {\'\i }t\IeC {\v e}}{2}{section.2.1}}
\citation{chapman_PRINCIPY}
\citation{kaspersky}
\@writefile{toc}{\contentsline {section}{\numberline {2.2}F\IeC {\'a}ze II. - budov\IeC {\'a}n\IeC {\'\i } bezdr\IeC {\'a}tov\IeC {\'e} s\IeC {\'\i }t\IeC {\v e}}{3}{section.2.2}}
\@writefile{toc}{\contentsline {section}{\numberline {2.3}F\IeC {\'a}ze III. - nasazen\IeC {\'\i } prvn\IeC {\'\i } bezpe\IeC {\v c}nostn\IeC {\'\i } br\IeC {\'a}ny}{3}{section.2.3}}
\@writefile{toc}{\contentsline {section}{\numberline {2.4}F\IeC {\'a}ze IV. - fin\IeC {\'a}ln\IeC {\'\i } f\IeC {\'a}ze}{4}{section.2.4}}
\citation{ladinn_kabelaz}
\citation{blog_rj45}
\citation{blog_rj45}
\@writefile{toc}{\contentsline {chapter}{\numberline {3}S\IeC {\'\i }\IeC {\v t}ov\IeC {\'e} prvky, technologie a \IeC {\v r}\IeC {\'\i }zen\IeC {\'\i } v~s\IeC {\'\i }ti}{5}{chapter.3}}
\@writefile{lof}{\addvspace {10\p@ }}
\@writefile{lot}{\addvspace {10\p@ }}
\@writefile{toc}{\contentsline {section}{\numberline {3.1}Pasivn\IeC {\'\i } s\IeC {\'\i }\IeC {\v t}ov\IeC {\'e} prvky}{5}{section.3.1}}
\@writefile{lot}{\contentsline {table}{\numberline {3.1}{\ignorespaces Druhy kabel\IeC {\'a}\IeC {\v z}e a jejich popis\relax }}{6}{table.caption.5}}
\providecommand*\caption@xref[2]{\@setref\relax\@undefined{#1}}
\newlabel{tab:cables}{{3.1}{6}{Druhy kabeláže a jejich popis\relax }{table.caption.5}{}}
\@writefile{lot}{\contentsline {table}{\numberline {3.2}{\ignorespaces Klasifikace metalick\IeC {\'y}ch kabel\IeC {\r u}\relax }}{6}{table.caption.6}}
\newlabel{tab:cables_category}{{3.2}{6}{Klasifikace metalických kabelů\relax }{table.caption.6}{}}
\@writefile{lof}{\contentsline {figure}{\numberline {3.1}{\ignorespaces Sch\IeC {\'e}ma zapojen\IeC {\'\i } konektoru RJ45, \cite  {blog_rj45}, 2015\relax }}{7}{figure.caption.7}}
\newlabel{fig:rj45}{{3.1}{7}{Schéma zapojení konektoru RJ45, \cite {blog_rj45}, 2015\relax }{figure.caption.7}{}}
\@writefile{toc}{\contentsline {section}{\numberline {3.2}Aktivn\IeC {\'\i } s\IeC {\'\i }\IeC {\v t}ov\IeC {\'e} prvky}{7}{section.3.2}}
\citation{itBIZ_sifrovaniwifi}
\@writefile{toc}{\contentsline {section}{\numberline {3.3}Funkce unifikovan\IeC {\'e} bezpe\IeC {\v c}nostn\IeC {\'\i } br\IeC {\'a}ny}{8}{section.3.3}}
\newlabel{sec:FWfnctn}{{3.3}{8}{Funkce unifikované bezpečnostní brány}{section.3.3}{}}
\citation{wiki_FIREWALL}
\citation{computerworld_KAM_SMERUJI_FIREWALLY}
\@writefile{lof}{\contentsline {figure}{\numberline {3.2}{\ignorespaces Funkce unifikovan\IeC {\'e} bezpe\IeC {\v c}nostn\IeC {\'\i } br\IeC {\'a}ny. Zdroj: vlastn\IeC {\'\i } zpracov\IeC {\'a}n\IeC {\'\i }, 2015\relax }}{9}{figure.caption.8}}
\newlabel{fig:app_diagram}{{3.2}{9}{Funkce unifikované bezpečnostní brány. Zdroj: vlastní zpracování, 2015\relax }{figure.caption.8}{}}
\@writefile{toc}{\contentsline {subsection}{\numberline {3.3.1}Unifikovan\IeC {\'a} bezpe\IeC {\v c}nostn\IeC {\'\i } br\IeC {\'a}na}{9}{subsection.3.3.1}}
\newlabel{sec:FWng}{{3.3.1}{9}{Unifikovaná bezpečnostní brána}{subsection.3.3.1}{}}
\citation{wiki_IDS}
\@writefile{toc}{\contentsline {subsection}{\numberline {3.3.2}Content filter}{10}{subsection.3.3.2}}
\@writefile{toc}{\contentsline {subsection}{\numberline {3.3.3}Anti-virus a Anti-spam}{10}{subsection.3.3.3}}
\citation{ms_VPN}
\citation{ct_HOME_OFFICE}
\citation{dsl_SSH}
\@writefile{toc}{\contentsline {subsection}{\numberline {3.3.4}IDP}{11}{subsection.3.3.4}}
\@writefile{toc}{\contentsline {subsection}{\numberline {3.3.5}VPN}{11}{subsection.3.3.5}}
\@writefile{toc}{\contentsline {subsection}{\numberline {3.3.6}Upozorn\IeC {\v e}n\IeC {\'\i } na probl\IeC {\'e}m v s\IeC {\'\i }ti}{11}{subsection.3.3.6}}
\@writefile{toc}{\contentsline {subsection}{\numberline {3.3.7}SSH}{11}{subsection.3.3.7}}
\citation{zyxel_NWA_PoE}
\@writefile{toc}{\contentsline {section}{\numberline {3.4}Dal\IeC {\v s}\IeC {\'\i } technologie}{12}{section.3.4}}
\@writefile{toc}{\contentsline {subsection}{\numberline {3.4.1}Power over Ethernet}{12}{subsection.3.4.1}}
\newlabel{sbsctn:PoE}{{3.4.1}{12}{Power over Ethernet}{subsection.3.4.1}{}}
\@writefile{toc}{\contentsline {subsection}{\numberline {3.4.2}Virtual LAN}{12}{subsection.3.4.2}}
\citation{samuraj_vlan}
\citation{abcLinuxu_nat}
\@writefile{lof}{\contentsline {figure}{\numberline {3.3}{\ignorespaces P\IeC {\v r}\IeC {\'\i }klad \IeC {\v r}e\IeC {\v s}en\IeC {\'\i } propojen\IeC {\'\i } s\IeC {\'\i }t\IeC {\v e} pomoc\IeC {\'\i } VLAN. Zdroj: vlastn\IeC {\'\i } zpracov\IeC {\'a}n\IeC {\'\i }, 2016\relax }}{13}{figure.caption.9}}
\newlabel{fig:vlans_example}{{3.3}{13}{Příklad řešení propojení sítě pomocí VLAN. Zdroj: vlastní zpracování, 2016\relax }{figure.caption.9}{}}
\@writefile{toc}{\contentsline {subsection}{\numberline {3.4.3}P\IeC {\v r}eklad s\IeC {\'\i }\IeC {\v t}ov\IeC {\'y}ch adres}{13}{subsection.3.4.3}}
\citation{cleverANDsmart_BYOD}
\citation{anect_BYOD}
\citation{hayes_BYOD}
\@writefile{toc}{\contentsline {section}{\numberline {3.5}Procesy a \IeC {\v r}\IeC {\'\i }zen\IeC {\'\i } v s\IeC {\'\i }ti}{14}{section.3.5}}
\@writefile{toc}{\contentsline {subsection}{\numberline {3.5.1}Bezpe\IeC {\v c}nostn\IeC {\'\i } politika s\IeC {\'\i }t\IeC {\v e}}{14}{subsection.3.5.1}}
\citation{paar_CRYPTO}
\citation{hanacek_Bezp}
\citation{svetsiti_krypto}
\@writefile{toc}{\contentsline {subsection}{\numberline {3.5.2}Bring your own device}{15}{subsection.3.5.2}}
\newlabel{sbsctn:BYOD}{{3.5.2}{15}{Bring your own device}{subsection.3.5.2}{}}
\@writefile{toc}{\contentsline {section}{\numberline {3.6}Kryptografie a hashovac\IeC {\'\i } funkce}{15}{section.3.6}}
\@writefile{toc}{\contentsline {chapter}{\numberline {4}Topologie s\IeC {\'\i }t\IeC {\v e}}{16}{chapter.4}}
\@writefile{lof}{\addvspace {10\p@ }}
\@writefile{lot}{\addvspace {10\p@ }}
\@writefile{toc}{\contentsline {section}{\numberline {4.1}\IeC {\'U}vod do topologie v budov\IeC {\v e} gymn\IeC {\'a}zia}{16}{section.4.1}}
\@writefile{lof}{\contentsline {figure}{\numberline {4.1}{\ignorespaces Zn\IeC {\'a}zorn\IeC {\v e}n\IeC {\'\i } rozd\IeC {\v e}len\IeC {\'\i } VLAN. Zdroj: vlastn\IeC {\'\i } zpracov\IeC {\'a}n\IeC {\'\i }, 2016\relax }}{17}{figure.caption.10}}
\newlabel{fig:vlans}{{4.1}{17}{Znázornění rozdělení VLAN. Zdroj: vlastní zpracování, 2016\relax }{figure.caption.10}{}}
\@writefile{toc}{\contentsline {section}{\numberline {4.2}Vytvo\IeC {\v r}en\IeC {\'\i } topologick\IeC {\'e}ho sch\IeC {\'e}matu}{17}{section.4.2}}
\@writefile{lof}{\contentsline {figure}{\numberline {4.2}{\ignorespaces Logick\IeC {\'e} sch\IeC {\'e}ma s\IeC {\'\i }t\IeC {\v e}. Zdroj: vlastn\IeC {\'\i } zpracov\IeC {\'a}n\IeC {\'\i }, 2016\relax }}{17}{figure.caption.11}}
\newlabel{fig:logicke_schema}{{4.2}{17}{Logické schéma sítě. Zdroj: vlastní zpracování, 2016\relax }{figure.caption.11}{}}
\@writefile{toc}{\contentsline {subsection}{\numberline {4.2.1}Z\IeC {\'\i }sk\IeC {\'a}n\IeC {\'\i } dat}{18}{subsection.4.2.1}}
\newlabel{sbsctn:topology_table}{{4.2.1}{18}{Získání dat}{subsection.4.2.1}{}}
\@writefile{lot}{\contentsline {table}{\numberline {4.1}{\ignorespaces Po\IeC {\v c}et jednotliv\IeC {\'y}ch s\IeC {\'\i }\IeC {\v t}ov\IeC {\'y}ch prvk\IeC {\r u} v budov\IeC {\v e}\relax }}{18}{table.caption.12}}
\newlabel{tab:topology_pieces}{{4.1}{18}{Počet jednotlivých síťových prvků v budově\relax }{table.caption.12}{}}
\@writefile{toc}{\contentsline {subsection}{\numberline {4.2.2}V\IeC {\'y}b\IeC {\v e}r aplikace}{18}{subsection.4.2.2}}
\citation{peterka_PoP}
\@writefile{lof}{\contentsline {figure}{\numberline {4.3}{\ignorespaces Uk\IeC {\'a}zka pracovn\IeC {\'\i }ho prost\IeC {\v r}ed\IeC {\'\i } aplikace Dia. Zdroj: vlastn\IeC {\'\i } zpracov\IeC {\'a}n\IeC {\'\i }, 2016\relax }}{19}{figure.caption.13}}
\newlabel{fig:dia_sw}{{4.3}{19}{Ukázka pracovního prostředí aplikace Dia. Zdroj: vlastní zpracování, 2016\relax }{figure.caption.13}{}}
\@writefile{toc}{\contentsline {section}{\numberline {4.3}Popis topologie}{19}{section.4.3}}
\@writefile{toc}{\contentsline {subsection}{\numberline {4.3.1}Kl\IeC {\'\i }\IeC {\v c}ov\IeC {\'e} prostory}{19}{subsection.4.3.1}}
\@writefile{toc}{\contentsline {subsection}{\numberline {4.3.2}Servery}{20}{subsection.4.3.2}}
\@writefile{toc}{\contentsline {subsection}{\numberline {4.3.3}S\IeC {\'\i }\IeC {\v t}ov\IeC {\'e} prvky}{20}{subsection.4.3.3}}
\citation{svetsiti_optika}
\@writefile{toc}{\contentsline {subsection}{\numberline {4.3.4}Pozice a propojen\IeC {\'\i } rack\IeC {\r u}}{21}{subsection.4.3.4}}
\@writefile{lof}{\contentsline {figure}{\numberline {4.4}{\ignorespaces Optick\IeC {\'e} kabely spojuj\IeC {\'\i }c\IeC {\'\i } hlavn\IeC {\'\i } budovu s p\IeC {\v r}\IeC {\'\i }stavbou. Zdroj: vlastn\IeC {\'\i } zpracov\IeC {\'a}n\IeC {\'\i }, 2016\relax }}{21}{figure.caption.14}}
\newlabel{fig:photo_optic}{{4.4}{21}{Optické kabely spojující hlavní budovu s přístavbou. Zdroj: vlastní zpracování, 2016\relax }{figure.caption.14}{}}
\@writefile{toc}{\contentsline {chapter}{\numberline {5}Anal\IeC {\'y}za po\IeC {\v z}adavk\IeC {\r u}}{22}{chapter.5}}
\@writefile{lof}{\addvspace {10\p@ }}
\@writefile{lot}{\addvspace {10\p@ }}
\newlabel{chpt_Analyse}{{5}{22}{Analýza požadavků}{chapter.5}{}}
\@writefile{toc}{\contentsline {section}{\numberline {5.1}Vlastnosti st\IeC {\'a}vaj\IeC {\'\i }c\IeC {\'\i } unifikovan\IeC {\'e} bezpe\IeC {\v c}nostn\IeC {\'\i } br\IeC {\'a}ny}{22}{section.5.1}}
\newlabel{sec:FWscsn}{{5.1}{22}{Vlastnosti stávající unifikované bezpečnostní brány}{section.5.1}{}}
\@writefile{toc}{\contentsline {subsection}{\numberline {5.1.1}Hardwarov\IeC {\'a} specifikace sou\IeC {\v c}asn\IeC {\'e} bezpe\IeC {\v c}nostn\IeC {\'\i } br\IeC {\'a}ny}{22}{subsection.5.1.1}}
\@writefile{lof}{\contentsline {figure}{\numberline {5.1}{\ignorespaces Zn\IeC {\'a}zorn\IeC {\v e}n\IeC {\'\i } rozd\IeC {\'\i }lu mezi vnit\IeC {\v r}n\IeC {\'\i } a vn\IeC {\v e}j\IeC {\v s}\IeC {\'\i } s\IeC {\'\i }t\IeC {\'\i }. Zdroj: vlastn\IeC {\'\i } zpracov\IeC {\'a}n\IeC {\'\i }, 2015\relax }}{23}{figure.caption.15}}
\newlabel{fig:wan_vs_lan}{{5.1}{23}{Znázornění rozdílu mezi vnitřní a vnější sítí. Zdroj: vlastní zpracování, 2015\relax }{figure.caption.15}{}}
\@writefile{toc}{\contentsline {subsection}{\numberline {5.1.2}Softwarov\IeC {\'a} specifikace sou\IeC {\v c}asn\IeC {\'e} bezpe\IeC {\v c}nostn\IeC {\'\i } br\IeC {\'a}ny}{23}{subsection.5.1.2}}
\citation{zyxel_USG50_ATD}
\@writefile{lot}{\contentsline {table}{\numberline {5.1}{\ignorespaces Funkce ZyXEL USG50\relax }}{24}{table.caption.16}}
\newlabel{tab:usg50_tab}{{5.1}{24}{Funkce ZyXEL USG50\relax }{table.caption.16}{}}
\@writefile{toc}{\contentsline {section}{\numberline {5.2}Po\IeC {\v z}adavky kladen\IeC {\'e} na novou unifikovanou bezpe\IeC {\v c}nostn\IeC {\'\i } br\IeC {\'a}nu}{24}{section.5.2}}
\@writefile{toc}{\contentsline {section}{\numberline {5.3}Ostatn\IeC {\'\i } po\IeC {\v z}adavky na zm\IeC {\v e}nu po\IeC {\v c}\IeC {\'\i }ta\IeC {\v c}ov\IeC {\'e} s\IeC {\'\i }t\IeC {\v e}}{25}{section.5.3}}
\@writefile{toc}{\contentsline {section}{\numberline {5.4}Anal\IeC {\'y}za aplikac\IeC {\'\i } komunikuj\IeC {\'\i }c\IeC {\'\i }ch s bezpe\IeC {\v c}nostn\IeC {\'\i } branou}{25}{section.5.4}}
\newlabel{sec_Analyza_app}{{5.4}{25}{Analýza aplikací komunikujících s bezpečnostní branou}{section.5.4}{}}
\@writefile{toc}{\contentsline {subsection}{\numberline {5.4.1}Aplika\IeC {\v c}n\IeC {\'\i } rozhran\IeC {\'\i }}{26}{subsection.5.4.1}}
\@writefile{toc}{\contentsline {subsection}{\numberline {5.4.2}Programovac\IeC {\'\i } jazyk}{26}{subsection.5.4.2}}
\citation{tutpoint_csharp}
\citation{itn_multicsharp}
\citation{itn_wpf}
\@writefile{toc}{\contentsline {subsection}{\numberline {5.4.3}Form\IeC {\'a}t konfigura\IeC {\v c}n\IeC {\'\i }ch soubor\IeC {\r u}}{27}{subsection.5.4.3}}
\@writefile{toc}{\contentsline {chapter}{\numberline {6}\IeC {\'U}prava s\IeC {\'\i }\IeC {\v t}ov\IeC {\'e} infrastruktury}{28}{chapter.6}}
\@writefile{lof}{\addvspace {10\p@ }}
\@writefile{lot}{\addvspace {10\p@ }}
\@writefile{toc}{\contentsline {section}{\numberline {6.1}V\IeC {\'y}padky s\IeC {\'\i }t\IeC {\v e}}{28}{section.6.1}}
\newlabel{sec:Vypadky}{{6.1}{28}{Výpadky sítě}{section.6.1}{}}
\@writefile{toc}{\contentsline {section}{\numberline {6.2}Fyzick\IeC {\'e} zabezpe\IeC {\v c}en\IeC {\'\i } s\IeC {\'\i }\IeC {\v t}ov\IeC {\'y}ch prvk\IeC {\r u}}{29}{section.6.2}}
\@writefile{toc}{\contentsline {section}{\numberline {6.3}V\IeC {\'y}m\IeC {\v e}na sou\IeC {\v c}asn\IeC {\'e} unifikovan\IeC {\'e} bezpe\IeC {\v c}nostn\IeC {\'\i } br\IeC {\'a}ny}{30}{section.6.3}}
\@writefile{toc}{\contentsline {subsection}{\numberline {6.3.1}V\IeC {\'y}b\IeC {\v e}r vhodn\IeC {\'e}ho za\IeC {\v r}\IeC {\'\i }zen\IeC {\'\i }}{30}{subsection.6.3.1}}
\@writefile{lot}{\contentsline {table}{\numberline {6.1}{\ignorespaces Vybran\IeC {\'e} produkty ke srovn\IeC {\'a}n\IeC {\'\i }, 2016\relax }}{30}{table.caption.17}}
\newlabel{tab:prdcts}{{6.1}{30}{Vybrané produkty ke srovnání, 2016\relax }{table.caption.17}{}}
\@writefile{lot}{\contentsline {table}{\numberline {6.2}{\ignorespaces Srovn\IeC {\'a}n\IeC {\'\i } dostupn\IeC {\'y}ch produkt\IeC {\r u}. Zdroj: ofici\IeC {\'a}ln\IeC {\'\i } katalogy v\IeC {\'y}robc\IeC {\r u}, 2015\relax }}{31}{table.caption.18}}
\newlabel{tab:srovnani_frwls}{{6.2}{31}{Srovnání dostupných produktů. Zdroj: oficiální katalogy výrobců, 2015\relax }{table.caption.18}{}}
\@writefile{lof}{\contentsline {figure}{\numberline {6.1}{\ignorespaces USG 110 um\IeC {\'\i }st\IeC {\v e}n\IeC {\'e} v rackov\IeC {\'e} sk\IeC {\v r}\IeC {\'\i }ni. Zdroj: vlastn\IeC {\'\i } zpracov\IeC {\'a}n\IeC {\'\i }, 2016\relax }}{32}{figure.caption.19}}
\newlabel{fig:photo_110}{{6.1}{32}{USG 110 umístěné v rackové skříni. Zdroj: vlastní zpracování, 2016\relax }{figure.caption.19}{}}
\@writefile{toc}{\contentsline {subsection}{\numberline {6.3.2}Konfigurace}{33}{subsection.6.3.2}}
\@writefile{lof}{\contentsline {figure}{\numberline {6.2}{\ignorespaces Grafick\IeC {\'e} u\IeC {\v z}ivatelsk\IeC {\'e} prost\IeC {\v r}ed\IeC {\'\i } USG 110. Zdroj: vlastn\IeC {\'\i } zpracov\IeC {\'a}n\IeC {\'\i }, 2016\relax }}{33}{figure.caption.20}}
\newlabel{fig:screen_110_fw}{{6.2}{33}{Grafické uživatelské prostředí USG 110. Zdroj: vlastní zpracování, 2016\relax }{figure.caption.20}{}}
\citation{zyxel_NWA_PoE}
\citation{zyxel_NWA_PoE}
\@writefile{toc}{\contentsline {section}{\numberline {6.4}V\IeC {\'y}m\IeC {\v e}na bezdr\IeC {\'a}tov\IeC {\'y}ch access point\IeC {\r u}}{34}{section.6.4}}
\@writefile{lof}{\contentsline {figure}{\numberline {6.3}{\ignorespaces NWA 3560. Zdroj: http://www.zyxel.com, 2016\relax }}{34}{figure.caption.21}}
\newlabel{fig:nwa3560}{{6.3}{34}{NWA 3560. Zdroj: http://www.zyxel.com, 2016\relax }{figure.caption.21}{}}
\@writefile{lot}{\contentsline {table}{\numberline {6.3}{\ignorespaces Technick\IeC {\'a} specifikace NWA 3560, Zdroj: \cite  {zyxel_NWA_PoE}, 2016\relax }}{35}{table.caption.22}}
\newlabel{tab:nwa3560_tab}{{6.3}{35}{Technická specifikace NWA 3560, Zdroj: \cite {zyxel_NWA_PoE}, 2016\relax }{table.caption.22}{}}
\@writefile{toc}{\contentsline {chapter}{\numberline {7}N\IeC {\'a}vrh aplikac\IeC {\'\i } pro usnadn\IeC {\v e}n\IeC {\'\i } spr\IeC {\'a}vy bezpe\IeC {\v c}nostn\IeC {\'\i } br\IeC {\'a}ny}{36}{chapter.7}}
\@writefile{lof}{\addvspace {10\p@ }}
\@writefile{lot}{\addvspace {10\p@ }}
\newlabel{chpt_App}{{7}{36}{Návrh aplikací pro usnadnění správy bezpečnostní brány}{chapter.7}{}}
\@writefile{toc}{\contentsline {section}{\numberline {7.1}Funkcionalita aplikac\IeC {\'\i }}{36}{section.7.1}}
\@writefile{toc}{\contentsline {section}{\numberline {7.2}Struktura aplikac\IeC {\'\i }}{37}{section.7.2}}
\newlabel{sec_Strktra}{{7.2}{37}{Struktura aplikací}{section.7.2}{}}
\citation{tamir_ssh}
\citation{codeplex_scheduler}
\@writefile{lof}{\contentsline {figure}{\numberline {7.1}{\ignorespaces Diagram pou\IeC {\v z}it\IeC {\'\i } aplikac\IeC {\'\i } vzhledem k u\IeC {\v z}ivatel\IeC {\r u}m. Zdroj: vlastn\IeC {\'\i } zpracov\IeC {\'a}n\IeC {\'\i }, 2016\relax }}{38}{figure.caption.23}}
\newlabel{fig:diag_apppouziti}{{7.1}{38}{Diagram použití aplikací vzhledem k uživatelům. Zdroj: vlastní zpracování, 2016\relax }{figure.caption.23}{}}
\@writefile{toc}{\contentsline {subsection}{\numberline {7.2.1}Knihovny}{38}{subsection.7.2.1}}
\@writefile{toc}{\contentsline {subsection}{\numberline {7.2.2}Konfigura\IeC {\v c}n\IeC {\'\i } soubory}{39}{subsection.7.2.2}}
\@writefile{lof}{\contentsline {figure}{\numberline {7.2}{\ignorespaces Diagram pou\IeC {\v z}it\IeC {\'\i } konfigura\IeC {\v c}n\IeC {\'\i }ch soubor\IeC {\r u} u aplikace pro spr\IeC {\'a}vce s\IeC {\'\i }t\IeC {\v e}\relax }}{40}{figure.caption.28}}
\newlabel{fig:dia_zycont_configs}{{7.2}{40}{Diagram použití konfiguračních souborů u aplikace pro správce sítě\relax }{figure.caption.28}{}}
\@writefile{lof}{\contentsline {figure}{\numberline {7.3}{\ignorespaces Diagram pou\IeC {\v z}it\IeC {\'\i } konfigura\IeC {\v c}n\IeC {\'\i }ch soubor\IeC {\r u} u aplikace pro spr\IeC {\'a}vu obsahu\relax }}{41}{figure.caption.29}}
\newlabel{fig:dia_zyconf_configs}{{7.3}{41}{Diagram použití konfiguračních souborů u aplikace pro správu obsahu\relax }{figure.caption.29}{}}
\@writefile{toc}{\contentsline {subsection}{\numberline {7.2.3}Kontroln\IeC {\'\i } soubory}{41}{subsection.7.2.3}}
\@writefile{toc}{\contentsline {section}{\numberline {7.3}Podpora dal\IeC {\v s}\IeC {\'\i }ch v\IeC {\'y}robc\IeC {\r u}}{41}{section.7.3}}
\@writefile{toc}{\contentsline {section}{\numberline {7.4}Zaji\IeC {\v s}t\IeC {\v e}n\IeC {\'\i } bezpe\IeC {\v c}nosti aplikac\IeC {\'\i }}{42}{section.7.4}}
\@writefile{toc}{\contentsline {section}{\numberline {7.5}Po\IeC {\v z}adavky pro b\IeC {\v e}h aplikac\IeC {\'\i }}{42}{section.7.5}}
\@writefile{lot}{\contentsline {table}{\numberline {7.1}{\ignorespaces Doporu\IeC {\v c}en\IeC {\'e} po\IeC {\v z}adavky pro spr\IeC {\'a}vn\IeC {\'y} b\IeC {\v e}h aplikac\IeC {\'\i }\relax }}{42}{table.caption.30}}
\newlabel{tab:app_configuration}{{7.1}{42}{Doporučené požadavky pro správný běh aplikací\relax }{table.caption.30}{}}
\@writefile{toc}{\contentsline {chapter}{\numberline {8}Aplikace ur\IeC {\v c}en\IeC {\'a} pro u\IeC {\v c}itele}{43}{chapter.8}}
\@writefile{lof}{\addvspace {10\p@ }}
\@writefile{lot}{\addvspace {10\p@ }}
\@writefile{toc}{\contentsline {section}{\numberline {8.1}Popis implementace}{43}{section.8.1}}
\@writefile{toc}{\contentsline {subsection}{\numberline {8.1.1}T\IeC {\v r}\IeC {\'\i }da Cipher}{43}{subsection.8.1.1}}
\newlabel{sct_cipher}{{8.1.1}{43}{Třída Cipher}{subsection.8.1.1}{}}
\@writefile{lof}{\contentsline {figure}{\numberline {8.1}{\ignorespaces Diagram proces\IeC {\r u} p\IeC {\v r}i startu aplikace pro spr\IeC {\'a}vu obsahu\relax }}{44}{figure.caption.31}}
\newlabel{fig:dia_zycont_stratapp}{{8.1}{44}{Diagram procesů při startu aplikace pro správu obsahu\relax }{figure.caption.31}{}}
\@writefile{toc}{\contentsline {subsection}{\numberline {8.1.2}T\IeC {\v r}\IeC {\'\i }da Commands}{44}{subsection.8.1.2}}
\@writefile{toc}{\contentsline {subsection}{\numberline {8.1.3}T\IeC {\v r}\IeC {\'\i }da FormControl}{45}{subsection.8.1.3}}
\@writefile{toc}{\contentsline {subsection}{\numberline {8.1.4}T\IeC {\v r}\IeC {\'\i }da GetText}{46}{subsection.8.1.4}}
\newlabel{sct_gettext}{{8.1.4}{46}{Třída GetText}{subsection.8.1.4}{}}
\@writefile{toc}{\contentsline {subsection}{\numberline {8.1.5}T\IeC {\v r}\IeC {\'\i }da CheckBoxAndCommand}{46}{subsection.8.1.5}}
\@writefile{toc}{\contentsline {subsection}{\numberline {8.1.6}T\IeC {\v r}\IeC {\'\i }da MainWindow}{46}{subsection.8.1.6}}
\@writefile{toc}{\contentsline {subsection}{\numberline {8.1.7}T\IeC {\v r}\IeC {\'\i }da StatusCheck}{46}{subsection.8.1.7}}
\@writefile{toc}{\contentsline {subsection}{\numberline {8.1.8}T\IeC {\v r}\IeC {\'\i }da Ui}{47}{subsection.8.1.8}}
\@writefile{toc}{\contentsline {subsection}{\numberline {8.1.9}T\IeC {\v r}\IeC {\'\i }da Util}{47}{subsection.8.1.9}}
\newlabel{sct_util}{{8.1.9}{47}{Třída Util}{subsection.8.1.9}{}}
\@writefile{toc}{\contentsline {subsection}{\numberline {8.1.10}T\IeC {\v r}\IeC {\'\i }da WindowContent}{48}{subsection.8.1.10}}
\@writefile{toc}{\contentsline {section}{\numberline {8.2}Popis u\IeC {\v z}ivatelsk\IeC {\'e}ho prost\IeC {\v r}ed\IeC {\'\i }}{48}{section.8.2}}
\@writefile{lof}{\contentsline {figure}{\numberline {8.2}{\ignorespaces U\IeC {\v z}ivatelsk\IeC {\'e} prost\IeC {\v r}ed\IeC {\'\i } aplikace pro spr\IeC {\'a}vu obsahu. Zdroj: vlastn\IeC {\'\i } zpracov\IeC {\'a}n\IeC {\'\i }, 2015\relax }}{49}{figure.caption.32}}
\newlabel{fig:cont_UI}{{8.2}{49}{Uživatelské prostředí aplikace pro správu obsahu. Zdroj: vlastní zpracování, 2015\relax }{figure.caption.32}{}}
\@writefile{toc}{\contentsline {chapter}{\numberline {9}Aplikace ur\IeC {\v c}en\IeC {\'a} pro administr\IeC {\'a}tora s\IeC {\'\i }t\IeC {\v e}}{50}{chapter.9}}
\@writefile{lof}{\addvspace {10\p@ }}
\@writefile{lot}{\addvspace {10\p@ }}
\@writefile{toc}{\contentsline {section}{\numberline {9.1}Popis implementace}{50}{section.9.1}}
\@writefile{toc}{\contentsline {subsection}{\numberline {9.1.1}T\IeC {\v r}\IeC {\'\i }da Cipher}{50}{subsection.9.1.1}}
\@writefile{toc}{\contentsline {subsection}{\numberline {9.1.2}T\IeC {\v r}\IeC {\'\i }da GetText}{50}{subsection.9.1.2}}
\@writefile{toc}{\contentsline {subsection}{\numberline {9.1.3}T\IeC {\v r}\IeC {\'\i }da MainWindow}{50}{subsection.9.1.3}}
\@writefile{toc}{\contentsline {subsection}{\numberline {9.1.4}T\IeC {\v r}\IeC {\'\i }da SetIPWindow}{51}{subsection.9.1.4}}
\@writefile{toc}{\contentsline {subsection}{\numberline {9.1.5}T\IeC {\v r}\IeC {\'\i }da StatusWindow}{51}{subsection.9.1.5}}
\@writefile{toc}{\contentsline {subsection}{\numberline {9.1.6}T\IeC {\v r}\IeC {\'\i }da Util}{51}{subsection.9.1.6}}
\@writefile{toc}{\contentsline {subsection}{\numberline {9.1.7}T\IeC {\v r}\IeC {\'\i }da WindowContent}{52}{subsection.9.1.7}}
\@writefile{toc}{\contentsline {section}{\numberline {9.2}Popis u\IeC {\v z}ivatelsk\IeC {\'e}ho prost\IeC {\v r}ed\IeC {\'\i }}{52}{section.9.2}}
\@writefile{lof}{\contentsline {figure}{\numberline {9.1}{\ignorespaces U\IeC {\v z}ivatelsk\IeC {\'e} prost\IeC {\v r}ed\IeC {\'\i } aplikace pro spr\IeC {\'a}vce s\IeC {\'\i }t\IeC {\v e}. Zdroj: vlastn\IeC {\'\i } zpracov\IeC {\'a}n\IeC {\'\i }, 2015\relax }}{53}{figure.caption.33}}
\newlabel{fig:conf_UI}{{9.1}{53}{Uživatelské prostředí aplikace pro správce sítě. Zdroj: vlastní zpracování, 2015\relax }{figure.caption.33}{}}
\@writefile{toc}{\contentsline {chapter}{\numberline {10}Aplikace pro restart bezpe\IeC {\v c}nostn\IeC {\'\i } br\IeC {\'a}ny}{54}{chapter.10}}
\@writefile{lof}{\addvspace {10\p@ }}
\@writefile{lot}{\addvspace {10\p@ }}
\@writefile{toc}{\contentsline {section}{\numberline {10.1}Popis implementace}{54}{section.10.1}}
\@writefile{toc}{\contentsline {subsection}{\numberline {10.1.1}T\IeC {\v r}\IeC {\'\i }da Cipher}{54}{subsection.10.1.1}}
\@writefile{toc}{\contentsline {subsection}{\numberline {10.1.2}T\IeC {\v r}\IeC {\'\i }da Email}{54}{subsection.10.1.2}}
\@writefile{toc}{\contentsline {subsection}{\numberline {10.1.3}T\IeC {\v r}\IeC {\'\i }da GetText}{55}{subsection.10.1.3}}
\@writefile{toc}{\contentsline {subsection}{\numberline {10.1.4}T\IeC {\v r}\IeC {\'\i }da Program}{55}{subsection.10.1.4}}
\@writefile{toc}{\contentsline {subsection}{\numberline {10.1.5}T\IeC {\v r}\IeC {\'\i }da Util}{55}{subsection.10.1.5}}
\@writefile{toc}{\contentsline {section}{\numberline {10.2}Popis u\IeC {\v z}ivatelsk\IeC {\'e}ho prost\IeC {\v r}ed\IeC {\'\i }}{55}{section.10.2}}
\citation{nullbyte_airmon}
\@writefile{toc}{\contentsline {chapter}{\numberline {11}Testov\IeC {\'a}n\IeC {\'\i }}{56}{chapter.11}}
\@writefile{lof}{\addvspace {10\p@ }}
\@writefile{lot}{\addvspace {10\p@ }}
\@writefile{toc}{\contentsline {section}{\numberline {11.1}Testov\IeC {\'a}n\IeC {\'\i } s\IeC {\'\i }t\IeC {\v e} vzhledem k proveden\IeC {\'y}m zm\IeC {\v e}n\IeC {\'a}m}{56}{section.11.1}}
\@writefile{toc}{\contentsline {subsection}{\numberline {11.1.1}Test 1 - ov\IeC {\v e}\IeC {\v r}en\IeC {\'\i } zabezpe\IeC {\v c}en\IeC {\'\i } wifi}{56}{subsection.11.1.1}}
\@writefile{lof}{\contentsline {figure}{\numberline {11.1}{\ignorespaces Sledov\IeC {\'a}n\IeC {\'\i } ve\IeC {\v s}ker\IeC {\'e}ho bezdr\IeC {\'a}tov\IeC {\'e}ho provozu v dosahu s\IeC {\'\i }\IeC {\v t}ov\IeC {\'e} karty\relax }}{57}{figure.caption.34}}
\newlabel{fig:airmon}{{11.1}{57}{Sledování veškerého bezdrátového provozu v dosahu síťové karty\relax }{figure.caption.34}{}}
\@writefile{toc}{\contentsline {subsection}{\numberline {11.1.2}Test 2 - Propustnost s\IeC {\'\i }t\IeC {\v e}}{57}{subsection.11.1.2}}
\@writefile{toc}{\contentsline {section}{\numberline {11.2}Testov\IeC {\'a}n\IeC {\'\i } aplikac\IeC {\'\i }}{57}{section.11.2}}
\@writefile{lof}{\contentsline {figure}{\numberline {11.2}{\ignorespaces Vyt\IeC {\'\i }\IeC {\v z}en\IeC {\'\i } bezpe\IeC {\v c}nostn\IeC {\'\i } br\IeC {\'a}ny v \IeC {\v c}ase\relax }}{58}{figure.caption.35}}
\newlabel{fig:zyVy}{{11.2}{58}{Vytížení bezpečnostní brány v čase\relax }{figure.caption.35}{}}
\@writefile{lof}{\contentsline {figure}{\numberline {11.3}{\ignorespaces P\IeC {\v r}enosov\IeC {\'a} rychlost na WAN portu bezpe\IeC {\v c}nostn\IeC {\'\i } br\IeC {\'a}ny\relax }}{58}{figure.caption.36}}
\newlabel{fig:Zysspeed}{{11.3}{58}{Přenosová rychlost na WAN portu bezpečnostní brány\relax }{figure.caption.36}{}}
\@writefile{toc}{\contentsline {subsection}{\numberline {11.2.1}Test 1 - nedostupnost bezpe\IeC {\v c}nostn\IeC {\'\i } br\IeC {\'a}ny}{58}{subsection.11.2.1}}
\@writefile{lof}{\contentsline {figure}{\numberline {11.4}{\ignorespaces Test nedostupnosti bezpe\IeC {\v c}nostn\IeC {\'\i } br\IeC {\'a}ny - stav po zapnut\IeC {\'\i } aplikace ZyCONTENT\relax }}{59}{figure.caption.37}}
\newlabel{fig:ipNCONT}{{11.4}{59}{Test nedostupnosti bezpečnostní brány - stav po zapnutí aplikace ZyCONTENT\relax }{figure.caption.37}{}}
\@writefile{toc}{\contentsline {subsection}{\numberline {11.2.2}Test 2 - chyb\IeC {\v e}j\IeC {\'\i }c\IeC {\'\i } konfigura\IeC {\v c}n\IeC {\'\i } soubory}{59}{subsection.11.2.2}}
\@writefile{lof}{\contentsline {figure}{\numberline {11.5}{\ignorespaces Test chyb\IeC {\v e}j\IeC {\'\i }c\IeC {\'\i }ch konfigura\IeC {\v c}n\IeC {\'\i }ch soubor\IeC {\r u} - stav po zapnut\IeC {\'\i } aplikace ZyCONTENT\relax }}{59}{figure.caption.38}}
\newlabel{fig:fileNONT}{{11.5}{59}{Test chybějících konfiguračních souborů - stav po zapnutí aplikace ZyCONTENT\relax }{figure.caption.38}{}}
\@writefile{toc}{\contentsline {subsection}{\numberline {11.2.3}Test 3 - pokus o p\IeC {\v r}eps\IeC {\'a}n\IeC {\'\i } konfigura\IeC {\v c}n\IeC {\'\i }ho souboru}{60}{subsection.11.2.3}}
\@writefile{lof}{\contentsline {figure}{\numberline {11.6}{\ignorespaces Test p\IeC {\v r}eps\IeC {\'a}n\IeC {\'\i } konfigura\IeC {\v c}n\IeC {\'\i }ch soubor\IeC {\r u} - stav po zapnut\IeC {\'\i } aplikace ZyCONTENT\relax }}{60}{figure.caption.39}}
\newlabel{fig:hashNONT}{{11.6}{60}{Test přepsání konfiguračních souborů - stav po zapnutí aplikace ZyCONTENT\relax }{figure.caption.39}{}}
\@writefile{toc}{\contentsline {subsection}{\numberline {11.2.4}Test 4 - pokus o zablokov\IeC {\'a}n\IeC {\'\i } konkr\IeC {\'e}tn\IeC {\'\i } str\IeC {\'a}nky v konkr\IeC {\'e}tn\IeC {\'\i } t\IeC {\v r}\IeC {\'\i }d\IeC {\v e}}{60}{subsection.11.2.4}}
\@writefile{lof}{\contentsline {figure}{\numberline {11.7}{\ignorespaces Test zablokov\IeC {\'a}n\IeC {\'\i } soci\IeC {\'a}ln\IeC {\'\i }ch s\IeC {\'\i }t\IeC {\'\i } - vypnut\IeC {\'e} / zapnut\IeC {\'e} pravidlo bezpe\IeC {\v c}nostn\IeC {\'\i } br\IeC {\'a}ny\relax }}{61}{figure.caption.40}}
\newlabel{fig:appZyx}{{11.7}{61}{Test zablokování sociálních sítí - vypnuté / zapnuté pravidlo bezpečnostní brány\relax }{figure.caption.40}{}}
\@writefile{toc}{\contentsline {section}{\numberline {11.3}Vyhodnocen\IeC {\'\i } test\IeC {\r u}}{61}{section.11.3}}
\@writefile{toc}{\contentsline {chapter}{\numberline {12}Zhodnocen\IeC {\'\i } p\IeC {\v r}\IeC {\'\i }nosu realizovan\IeC {\'y}ch vylep\IeC {\v s}en\IeC {\'\i }}{62}{chapter.12}}
\@writefile{lof}{\addvspace {10\p@ }}
\@writefile{lot}{\addvspace {10\p@ }}
\@writefile{toc}{\contentsline {section}{\numberline {12.1}P\IeC {\v r}\IeC {\'\i }nos zm\IeC {\v e}n v topologii s\IeC {\'\i }t\IeC {\v e}}{62}{section.12.1}}
\@writefile{lot}{\contentsline {table}{\numberline {12.1}{\ignorespaces Zhodnocen\IeC {\'\i } dodr\IeC {\v z}en\IeC {\'\i } po\IeC {\v z}adavk\IeC {\r u}, Zdroj: Vlastn\IeC {\'\i } zpracov\IeC {\'a}n\IeC {\'\i }\relax }}{62}{table.caption.41}}
\newlabel{tab:prinosy}{{12.1}{62}{Zhodnocení dodržení požadavků, Zdroj: Vlastní zpracování\relax }{table.caption.41}{}}
\@writefile{toc}{\contentsline {section}{\numberline {12.2}P\IeC {\v r}\IeC {\'\i }nos aplikac\IeC {\'\i }}{63}{section.12.2}}
\@writefile{toc}{\contentsline {section}{\numberline {12.3}Mo\IeC {\v z}n\IeC {\'a} roz\IeC {\v s}\IeC {\'\i }\IeC {\v r}en\IeC {\'\i }}{63}{section.12.3}}
\@writefile{toc}{\contentsline {chapter}{\numberline {13}Z\IeC {\'a}v\IeC {\v e}r}{64}{chapter.13}}
\@writefile{lof}{\addvspace {10\p@ }}
\@writefile{lot}{\addvspace {10\p@ }}
\bibstyle{unsrt}
\bibdata{zdroje}
\newacro{AP}[\AC@hyperlink{AP}{AP}]{Access point, bezdr\IeC {\'a}tov\IeC {\'y} p\IeC {\v r}\IeC {\'\i }stupov\IeC {\'y} bod}
\newacro{BYOD}[\AC@hyperlink{BYOD}{BYOD}]{Bring your own device}
\newacro{IDF}[\AC@hyperlink{IDF}{IDF}]{Intermediate Distribution Frames}
\newacro{IDP}[\AC@hyperlink{IDP}{IDP}]{Intrusion Detection and Prevention systems}
\newacro{IP}[\AC@hyperlink{IP}{IP}]{Internet Protocol}
\newacro{IT}[\AC@hyperlink{IT}{IT}]{Informa\IeC {\v c}n\IeC {\'\i } technologie}
\newacro{MDF}[\AC@hyperlink{MDF}{MDF}]{Main Distribution Frame}
\newacro{MS}[\AC@hyperlink{MS}{MS}]{Microsoft}
\newacro{NAT}[\AC@hyperlink{NAT}{NAT}]{Network Address Translation}
\newacro{OS}[\AC@hyperlink{OS}{OS}]{Opera\IeC {\v c}n\IeC {\'\i } syst\IeC {\'e}m}
\newacro{PoE}[\AC@hyperlink{PoE}{PoE}]{Power over Ethernet}
\newacro{RJ45}[\AC@hyperlink{RJ45}{RJ45}]{Koncovka pro ethernetov\IeC {\'y} kabel}
\newacro{SCP}[\AC@hyperlink{SCP}{SCP}]{Secure Copy Protocol}
\newacro{SFTP}[\AC@hyperlink{SFTP}{SFTP}]{SSH File Transfer Protocol}
\newacro{SSH}[\AC@hyperlink{SSH}{SSH}]{Secure Shell}
\newacro{SSID}[\AC@hyperlink{SSID}{SSID}]{Service Set Identifier - identifik\IeC {\'a}tor bezdr\IeC {\'a}tov\IeC {\'e} s\IeC {\'\i }t\IeC {\v e} wifi}
\newacro{TCP}[\AC@hyperlink{TCP}{TCP}]{Transmission Control Protocol}
\newacro{UTM}[\AC@hyperlink{UTM}{UTM}]{Unified threat management}
\newacro{VPN}[\AC@hyperlink{VPN}{VPN}]{Virtual private network}
\newacro{WEP}[\AC@hyperlink{WEP}{WEP}]{Wired Equivalent Privacy}
\newacro{WPA}[\AC@hyperlink{WPA}{WPA}]{Wifi Protected Access}
\bibcite{svetsiti_ETHERNET}{1}
\bibcite{chapman_PRINCIPY}{2}
\bibcite{kaspersky}{3}
\bibcite{ladinn_kabelaz}{4}
\bibcite{blog_rj45}{5}
\bibcite{itBIZ_sifrovaniwifi}{6}
\bibcite{wiki_FIREWALL}{7}
\bibcite{computerworld_KAM_SMERUJI_FIREWALLY}{8}
\bibcite{wiki_IDS}{9}
\bibcite{ms_VPN}{10}
\bibcite{ct_HOME_OFFICE}{11}
\bibcite{dsl_SSH}{12}
\@writefile{toc}{\contentsline {chapter}{Literatura}{66}{chapter*.43}}
\bibcite{zyxel_NWA_PoE}{13}
\bibcite{samuraj_vlan}{14}
\bibcite{abcLinuxu_nat}{15}
\bibcite{cleverANDsmart_BYOD}{16}
\bibcite{anect_BYOD}{17}
\bibcite{hayes_BYOD}{18}
\bibcite{paar_CRYPTO}{19}
\bibcite{hanacek_Bezp}{20}
\bibcite{svetsiti_krypto}{21}
\bibcite{peterka_PoP}{22}
\bibcite{svetsiti_optika}{23}
\bibcite{zyxel_USG50_ATD}{24}
\bibcite{tutpoint_csharp}{25}
\bibcite{itn_multicsharp}{26}
\bibcite{itn_wpf}{27}
\bibcite{tamir_ssh}{28}
\bibcite{codeplex_scheduler}{29}
\bibcite{nullbyte_airmon}{30}
\citation{blog_rj45}
\citation{zyxel_NWA_PoE}
\@writefile{app}{\contentsline {appendix}{\numberline {A}Sch\IeC {\'e}ma s\IeC {\'\i }t\IeC {\v e}}{1}{section*.46}}
\@writefile{app}{\contentsline {subappendix}{\numberline {A.1}Sch\IeC {\'e}ma s\IeC {\'\i }t\IeC {\v e} ve druh\IeC {\'e}m pat\IeC {\v r}e.}{2}{section*.47}}
\@writefile{app}{\contentsline {subappendix}{\numberline {A.2}Sch\IeC {\'e}ma s\IeC {\'\i }t\IeC {\v e} v prvn\IeC {\'\i }m pat\IeC {\v r}e.}{3}{section*.48}}
\@writefile{app}{\contentsline {subappendix}{\numberline {A.3}Sch\IeC {\'e}ma s\IeC {\'\i }t\IeC {\v e} v p\IeC {\v r}\IeC {\'\i }zem\IeC {\'\i }.}{4}{section*.49}}
\@writefile{app}{\contentsline {subappendix}{\numberline {A.4}Sch\IeC {\'e}ma s\IeC {\'\i }t\IeC {\v e} v podzemn\IeC {\'\i }ch prostorech.}{5}{section*.50}}
\@writefile{app}{\contentsline {subappendix}{\numberline {A.5}Sch\IeC {\'e}ma s\IeC {\'\i }t\IeC {\v e} v p\IeC {\v r}\IeC {\'\i }stavb\IeC {\v e}.}{6}{section*.51}}
\@writefile{app}{\contentsline {subappendix}{\numberline {A.6}Sch\IeC {\'e}ma rozm\IeC {\'\i }st\IeC {\v e}n\IeC {\'\i } rackov\IeC {\'y}ch sk\IeC {\v r}\IeC {\'\i }n\IeC {\'\i }.}{7}{section*.52}}
\@writefile{app}{\contentsline {appendix}{\numberline {B}Instala\IeC {\v c}n\IeC {\'\i } a u\IeC {\v z}ivatelsk\IeC {\'a} dokumentace aplikace pro spr\IeC {\'a}vu obsahu}{8}{section*.53}}
\newlabel{appendix_prirucka_cont}{{B}{8}{\theappendix \space Instalační a uživatelská dokumentace aplikace pro správu obsahu}{section*.53}{}}
\@writefile{app}{\contentsline {appendix}{\numberline {C}Obsah p\IeC {\v r}ilo\IeC {\v z}en\IeC {\'e}ho CD}{9}{section*.54}}
\newlabel{appendix_cd}{{C}{9}{\theappendix \space Obsah přiloženého CD}{section*.54}{}}
